{
  "products": [
    {
      "id": "1",
      "nameProduct": "Bicicleta de Montaña",
      "description": "Una bicicleta todoterreno para terrenos difíciles.",
      "typeProduct": "bicicleta"
    },
    {
      "id": "2",
      "nameProduct": "Servicio de Reparación",
      "description": "Reparación completa de bicicletas, incluyendo ajuste de frenos y cambios.",
      "typeProduct": "servicios"
    },
    {
      "id": "3",
      "nameProduct": "Casco de Bicicleta",
      "description": "Casco de seguridad para ciclismo con ventilación.",
      "typeProduct": "accesorios"
    },
    {
      "id": "4",
      "nameProduct": "Kit de Mantenimiento para Bicicleta",
      "description": "Kit completo con herramientas para el mantenimiento de bicicletas.",
      "typeProduct": "mantenimiento"
    },
    {
      "id": "5",
      "nameProduct": "Jersey de Ciclismo",
      "description": "Jersey transpirable y ligero para ciclismo en climas cálidos.",
      "typeProduct": "ropa deportiva"
    }
  ],
  "register": [
    {
      "id": "97f1",
      "email": "felipe-1716@hotmail.com",
      "password": "12345",
      "firstName": "Luis",
      "lastName": "Chaparro",
      "role": "admin"
    },
    {
      "id": "240e",
      "email": "luis.chaparroh@usantoto.edu.co",
      "password": "12345",
      "firstName": "Luis",
      "lastName": "Hurtado",
      "role": "admin"
    },
    {
      "id": "0e9f",
      "name": "Luis Felipe Chaparro Hurtado",
      "email": "felipe-1716@hotmail.com",
      "password": "12345",
      "confirmPassword": "12345",
      "role": "admin"
    }
  ],
  "login": [
    {
      "id": "356f",
      "email": "felipe-1716@hotmail.com",
      "password": "12345"
    },
    {
      "id": "8288",
      "email": "felipe-1716@hotmail.com",
      "password": "12345"
    }
  ]
}